{
	"info": {
		"_postman_id": "d036af9e-3f75-448d-ab33-819e394aaba5",
		"name": "secret_menu_items",
		"schema": "https://schema.getpostman.com/json/collection/v2.0.0/collection.json",
		"_exporter_id": "17430352"
	},
	"item": [
		{
			"name": "get_all_menu_items",
			"request": {
				"method": "GET",
				"header": [],
				"url": "http://localhost:3000/secret_menu_items"
			},
			"response": [
				{
					"id": 1,
					"menu_name": "Chipotle Nachos",
					"restaurant_name": "Chipotle",
					"menu_description": "Build a plate of nachos with all of your favorite fixings",
					"created_at": "2023-08-29T08:31:18.438Z",
					"updated_at": "2023-08-29T08:31:18.438Z"
				},
				{
					"id": 2,
					"menu_name": "Starbucks butterbeer Frappuccino",
					"restaurant_name": "Starbucks",
					"menu_description": "Combine three pumps of toffee nut syrup and three pumps of caramel with a Crème Frappuccino base",
					"created_at": "2023-08-29T08:31:18.453Z",
					"updated_at": "2023-08-29T08:31:18.453Z"
				},
				{
					"id": 3,
					"menu_name": "Skittles",
					"restaurant_name": "Jamba Juice",
					"menu_description": "A colorful and fruity treat to enjoy",
					"created_at": "2023-08-29T08:31:18.465Z",
					"updated_at": "2023-08-29T08:31:18.465Z"
				}
			]
		},
		{
			"name": "get_single_menu_items",
			"request": {
				"method": "GET",
				"header": [],
				"url": "http://localhost:3000/secret_menu_items/1"
			},
			"response": [
				{
					"id": 1,
					"menu_name": "Chipotle Nachos",
					"restaurant_name": "Chipotle",
					"menu_description": "Build a plate of nachos with all of your favorite fixings",
					"created_at": "2023-08-29T08:31:18.438Z",
					"updated_at": "2023-08-29T08:31:18.438Z"
				}
			]
		},
		{
			"name": "Send data",
			"request": {
				"method": "POST",
				"header": [],
				"body": {
					"mode": "urlencoded",
					"urlencoded": [
						{
							"key": "menu_name",
							"value": "'Sauce'",
							"type": "text"
						},
						{
							"key": "restaurant_name",
							"value": "'Oliver'",
							"type": "text"
						},
						{
							"key": "menu_description",
							"value": "'Chief Sauce'",
							"type": "text"
						}
					]
				},
				"url": "http://localhost:3000/secret_menu_items"
			},
			"response": [
				{
					"id": 9,
					"menu_name": "'Sauce'",
					"restaurant_name": "'Oliver'",
					"menu_description": "'Chief Sauce'",
					"created_at": "2023-08-29T09:30:18.269Z",
					"updated_at": "2023-08-29T09:30:18.269Z"
				}
			]
		},
		{
			"name": "Update data",
			"request": {
				"method": "PATCH",
				"header": [],
				"body": {
					"mode": "urlencoded",
					"urlencoded": [
						{
							"key": "menu_name",
							"value": "Sauce",
							"type": "text"
						},
						{
							"key": "restaurant_name",
							"value": "Dorritos",
							"type": "text"
						},
						{
							"key": "menu_description",
							"value": "Chief Sauce",
							"type": "text"
						}
					]
				},
				"url": "http://localhost:3000/secret_menu_items/1"
			},
			"response": [
				{
					"menu_name": "Sauce",
					"restaurant_name": "Dorritos",
					"menu_description": "Chief Sauce",
					"id": 1,
					"created_at": "2023-08-29T08:31:18.438Z",
					"updated_at": "2023-08-29T09:32:13.784Z"
				}
			]
		},
		{
			"name": "Delete data",
			"request": {
				"method": "DELETE",
				"header": [],
				"body": {
					"mode": "urlencoded",
					"urlencoded": [
						{
							"key": "menu_name",
							"value": "Sauce",
							"type": "text"
						},
						{
							"key": "restaurant_name",
							"value": "Dorritos",
							"type": "text"
						},
						{
							"key": "menu_description",
							"value": "Chief Sauce",
							"type": "text"
						}
					]
				},
				"url": "http://localhost:3000/secret_menu_items/1"
			},
			"response": [
				{
					"message": "Secret menu item deleted successfully."
				}
			]
		}
	]
}
